design/transcript
# vsim -c top -do "run -all; exit" 
# Start time: 12:22:14 on Feb 21,2023
# ** Note: (vsim-3813) Design is being optimized due to module recompilation...
# ** Warning: mul.sv(56): (vopt-2241) Connection width does not match width of port 'co'. The port definition is at: add.sv(1).
# ** Warning: mul.sv(56): (vopt-2241) Connection width does not match width of port 'co'. The port definition is at: add.sv(1).
# ** Warning: mul.sv(56): (vopt-2241) Connection width does not match width of port 'co'. The port definition is at: add.sv(1).
# ** Warning: mul.sv(56): (vopt-2241) Connection width does not match width of port 'co'. The port definition is at: add.sv(1).
# ** Warning: mul.sv(56): (vopt-2241) Connection width does not match width of port 'co'. The port definition is at: add.sv(1).
# ** Warning: mul.sv(56): (vopt-2241) Connection width does not match width of port 'co'. The port definition is at: add.sv(1).
# ** Warning: mul.sv(56): (vopt-2241) Connection width does not match width of port 'co'. The port definition is at: add.sv(1).
# ** Warning: mul.sv(56): (vopt-2241) Connection width does not match width of port 'co'. The port definition is at: add.sv(1).
# ** Warning: mul.sv(56): (vopt-2241) Connection width does not match width of port 'co'. The port definition is at: add.sv(1).
# ** Warning: mul.sv(56): (vopt-2241) Connection width does not match width of port 'co'. The port definition is at: add.sv(1).
# ** Warning: mul.sv(56): (vopt-2241) Connection width does not match width of port 'co'. The port definition is at: add.sv(1).
# ** Warning: mul.sv(56): (vopt-2241) Connection width does not match width of port 'co'. The port definition is at: add.sv(1).
# ** Warning: mul.sv(56): (vopt-2241) Connection width does not match width of port 'co'. The port definition is at: add.sv(1).
# ** Warning: mul.sv(56): (vopt-2241) Connection width does not match width of port 'co'. The port definition is at: add.sv(1).
# ** Warning: mul.sv(56): (vopt-2241) Connection width does not match width of port 'co'. The port definition is at: add.sv(1).
# //  Questa Sim-64
# //  Version 10.7d linux_x86_64 Feb 15 2019
# //
# //  Copyright 1991-2019 Mentor Graphics Corporation
# //  All Rights Reserved.
# //
# //  QuestaSim and its associated documentation contain trade
# //  secrets and commercial or financial information that are the property of
# //  Mentor Graphics Corporation and are privileged, confidential,
# //  and exempt from disclosure under the Freedom of Information Act,
# //  5 U.S.C. Section 552. Furthermore, this information
# //  is prohibited from disclosure under the Trade Secrets Act,
# //  18 U.S.C. Section 1905.
# //
# Loading sv_std.std
# Loading work.testbench_sv_unit(fast)
# Loading work.top(fast)
# Loading work.rs1_mux_16x1(fast)
# Loading work.rs2_mux_16x1(fast)
# Loading work.rd_demux(fast)
# run -all
# 0x8 	 rs1_val=35, rs2_val=47, or x14, x0, x8 	 x14 : 12, reg_file=x 12 x x x 59 x x x x x x x x x x
# 0x9 	 rs1_val=35, rs2_val=47, or x14, x0, x8 	 x14 : 12, reg_file=x 12 x x x 59 x x x x x x x x x x
# 0xa 	 rs1_val=35, rs2_val=47, or x14, x0, x8 	 x14 : 12, reg_file=x 12 x x x 59 x x x x x x x x x x
# 0xb 	 rs1_val=35, rs2_val=47, or x14, x0, x8 	 x14 : 12, reg_file=x 12 x x x 59 x x x x x x x x x x
# 0xc 	 rs1_val=35, rs2_val=47, or x14, x0, x8 	 x14 : 12, reg_file=x 12 x x x 59 x x x x x x x x x x
# 0xd 	 rs1_val=35, rs2_val=47, or x14, x0, x8 	 x14 : 12, reg_file=x 12 x x x 59 x x x x x x x x x x
# 0xe 	 rs1_val=35, rs2_val=47, or x14, x0, x8 	 x14 : 12, reg_file=x 12 x x x 59 x x x x x x x x x x
# 0xf 	 rs1_val=35, rs2_val=47, or x14, x0, x8 	 x14 : 12, reg_file=x 12 x x x 59 x x x x x x x x x x
# *0x10 	 *****exception case, addition result exceed data length ******* rs1_val=46, rs2_val=44, add x7, x4, x4 	 x7 : 0,reg_file=x 12 x x x 59 x x 0 x x x x x x x
# *0x11 	 *****exception case, addition result exceed data length ******* rs1_val=46, rs2_val=44, add x7, x4, x4 	 x7 : 0,reg_file=x 12 x x x 59 x x 0 x x x x x x x
# *0x12 	 *****exception case, addition result exceed data length ******* rs1_val=46, rs2_val=44, add x7, x4, x4 	 x7 : 0,reg_file=x 12 x x x 59 x x 0 x x x x x x x
# *0x13 	 *****exception case, addition result exceed data length ******* rs1_val=46, rs2_val=44, add x7, x4, x4 	 x7 : 0,reg_file=x 12 x x x 59 x x 0 x x x x x x x
# *0x14 	 *****exception case, addition result exceed data length ******* rs1_val=46, rs2_val=44, add x7, x4, x4 	 x7 : 0,reg_file=x 12 x x x 59 x x 0 x x x x x x x
# *0x15 	 *****exception case, addition result exceed data length ******* rs1_val=46, rs2_val=44, add x7, x4, x4 	 x7 : 0,reg_file=x 12 x x x 59 x x 0 x x x x x x x
# *0x16 	 *****exception case, addition result exceed data length ******* rs1_val=46, rs2_val=44, add x7, x4, x4 	 x7 : 0,reg_file=x 12 x x x 59 x x 0 x x x x x x x
# *0x17 	 *****exception case, addition result exceed data length ******* rs1_val=46, rs2_val=44, add x7, x4, x4 	 x7 : 0,reg_file=x 12 x x x 59 x x 0 x x x x x x x
# 0x18 	 rs1_val=44, rs2_val=47, div x6, x15, x10 	 x6 : 65533,rem=0 reg_file=x 12 x x x 59 x x 0 65533 x x x x x x
# 0x19 	 rs1_val=44, rs2_val=47, div x6, x15, x10 	 x6 : 65533,rem=0 reg_file=x 12 x x x 59 x x 0 65533 x x x x x x
# 0x1a 	 rs1_val=44, rs2_val=47, div x6, x15, x10 	 x6 : 65533,rem=0 reg_file=x 12 x x x 59 x x 0 65533 x x x x x x
# 0x1b 	 rs1_val=44, rs2_val=47, div x6, x15, x10 	 x6 : 65533,rem=0 reg_file=x 12 x x x 59 x x 0 65533 x x x x x x
# 0x1c 	 rs1_val=44, rs2_val=47, div x6, x15, x10 	 x6 : 65533,rem=0 reg_file=x 12 x x x 59 x x 0 65533 x x x x x x
# 0x1d 	 rs1_val=44, rs2_val=47, div x6, x15, x10 	 x6 : 65533,rem=0 reg_file=x 12 x x x 59 x x 0 65533 x x x x x x
# 0x1e 	 rs1_val=44, rs2_val=47, div x6, x15, x10 	 x6 : 65533,rem=0 reg_file=x 12 x x x 59 x x 0 65533 x x x x x x
# 0x1f 	 rs1_val=44, rs2_val=47, div x6, x15, x10 	 x6 : 65533,rem=0 reg_file=x 12 x x x 59 x x 0 65533 x x x x x x
# 0x20 	 rs1_val=28, rs2_val=44, sub x15, x4, x0 	 x15 : 65533,reg_file=65533 12 x x x 59 x x 0 65533 x x x x x x
# 0x21 	 rs1_val=28, rs2_val=44, sub x15, x4, x0 	 x15 : 65533,reg_file=65533 12 x x x 59 x x 0 65533 x x x x x x
# 0x22 	 rs1_val=28, rs2_val=44, sub x15, x4, x0 	 x15 : 65533,reg_file=65533 12 x x x 59 x x 0 65533 x x x x x x
# 0x23 	 rs1_val=28, rs2_val=44, sub x15, x4, x0 	 x15 : 65533,reg_file=65533 12 x x x 59 x x 0 65533 x x x x x x
# 0x24 	 rs1_val=28, rs2_val=44, sub x15, x4, x0 	 x15 : 65533,reg_file=65533 12 x x x 59 x x 0 65533 x x x x x x
# 0x25 	 rs1_val=28, rs2_val=44, sub x15, x4, x0 	 x15 : 65533,reg_file=65533 12 x x x 59 x x 0 65533 x x x x x x
# 0x26 	 rs1_val=28, rs2_val=44, sub x15, x4, x0 	 x15 : 65533,reg_file=65533 12 x x x 59 x x 0 65533 x x x x x x
# 0x27 	 rs1_val=28, rs2_val=44, sub x15, x4, x0 	 x15 : 65533,reg_file=65533 12 x x x 59 x x 0 65533 x x x x x x
# 0x28 	 rs1_val=34, rs2_val=35, sub x15, x0, x14 	 x15 : 65533,reg_file=65533 12 x x x 59 x x 0 65533 x x x x x x
# 0x29 	 rs1_val=34, rs2_val=35, sub x15, x0, x14 	 x15 : 65533,reg_file=65533 12 x x x 59 x x 0 65533 x x x x x x
# 0x2a 	 rs1_val=34, rs2_val=35, sub x15, x0, x14 	 x15 : 65533,reg_file=65533 12 x x x 59 x x 0 65533 x x x x x x
# 0x2b 	 rs1_val=34, rs2_val=35, sub x15, x0, x14 	 x15 : 65533,reg_file=65533 12 x x x 59 x x 0 65533 x x x x x x
# 0x2c 	 rs1_val=34, rs2_val=35, sub x15, x0, x14 	 x15 : 65533,reg_file=65533 12 x x x 59 x x 0 65533 x x x x x x
# 0x2d 	 rs1_val=34, rs2_val=35, sub x15, x0, x14 	 x15 : 65533,reg_file=65533 12 x x x 59 x x 0 65533 x x x x x x
# 0x2e 	 rs1_val=34, rs2_val=35, sub x15, x0, x14 	 x15 : 65533,reg_file=65533 12 x x x 59 x x 0 65533 x x x x x x
# 0x2f 	 rs1_val=34, rs2_val=35, sub x15, x0, x14 	 x15 : 65533,reg_file=65533 12 x x x 59 x x 0 65533 x x x x x x
# 0x30 	 rs1_val=36, rs2_val=36, sub x10, x6, x5 	 x10 : 65533,reg_file=65533 12 x x x 65533 x x 0 65533 x x x x x x
# 0x31 	 rs1_val=36, rs2_val=36, sub x10, x6, x5 	 x10 : 65533,reg_file=65533 12 x x x 65533 x x 0 65533 x x x x x x
# 0x32 	 rs1_val=36, rs2_val=36, sub x10, x6, x5 	 x10 : 65533,reg_file=65533 12 x x x 65533 x x 0 65533 x x x x x x
# 0x33 	 rs1_val=36, rs2_val=36, sub x10, x6, x5 	 x10 : 65533,reg_file=65533 12 x x x 65533 x x 0 65533 x x x x x x
# 0x34 	 rs1_val=36, rs2_val=36, sub x10, x6, x5 	 x10 : 65533,reg_file=65533 12 x x x 65533 x x 0 65533 x x x x x x
# 0x35 	 rs1_val=36, rs2_val=36, sub x10, x6, x5 	 x10 : 65533,reg_file=65533 12 x x x 65533 x x 0 65533 x x x x x x
# 0x36 	 rs1_val=36, rs2_val=36, sub x10, x6, x5 	 x10 : 65533,reg_file=65533 12 x x x 65533 x x 0 65533 x x x x x x
# 0x37 	 rs1_val=36, rs2_val=36, sub x10, x6, x5 	 x10 : 65533,reg_file=65533 12 x x x 65533 x x 0 65533 x x x x x x
# 0x38 	 rs1_val=42, rs2_val=41, sub x7, x1, x14 	 x7 : 65533,reg_file=65533 12 x x x 65533 x x 65533 65533 x x x x x x
# 0x39 	 rs1_val=42, rs2_val=41, sub x7, x1, x14 	 x7 : 65533,reg_file=65533 12 x x x 65533 x x 65533 65533 x x x x x x
# 0x3a 	 rs1_val=42, rs2_val=41, sub x7, x1, x14 	 x7 : 65533,reg_file=65533 12 x x x 65533 x x 65533 65533 x x x x x x
# 0x3b 	 rs1_val=42, rs2_val=41, sub x7, x1, x14 	 x7 : 65533,reg_file=65533 12 x x x 65533 x x 65533 65533 x x x x x x
# 0x3c 	 rs1_val=42, rs2_val=41, sub x7, x1, x14 	 x7 : 65533,reg_file=65533 12 x x x 65533 x x 65533 65533 x x x x x x
# 0x3d 	 rs1_val=42, rs2_val=41, sub x7, x1, x14 	 x7 : 65533,reg_file=65533 12 x x x 65533 x x 65533 65533 x x x x x x
# 0x3e 	 rs1_val=42, rs2_val=41, sub x7, x1, x14 	 x7 : 65533,reg_file=65533 12 x x x 65533 x x 65533 65533 x x x x x x
# 0x3f 	 rs1_val=42, rs2_val=41, sub x7, x1, x14 	 x7 : 65533,reg_file=65533 12 x x x 65533 x x 65533 65533 x x x x x x
# 0x40 	 rs1_val=50, rs2_val=50, sub x1, x2, x1 	 x1 : 50,reg_file=65533 12 x x x 65533 x x 65533 65533 x x x x 50 x
# 0x41 	 rs1_val=50, rs2_val=50, sub x1, x2, x1 	 x1 : 50,reg_file=65533 12 x x x 65533 x x 65533 65533 x x x x 50 x
# 0x42 	 rs1_val=50, rs2_val=50, sub x1, x2, x1 	 x1 : 50,reg_file=65533 12 x x x 65533 x x 65533 65533 x x x x 50 x
# 0x43 	 rs1_val=50, rs2_val=50, sub x1, x2, x1 	 x1 : 50,reg_file=65533 12 x x x 65533 x x 65533 65533 x x x x 50 x
# 0x44 	 rs1_val=50, rs2_val=50, sub x1, x2, x1 	 x1 : 50,reg_file=65533 12 x x x 65533 x x 65533 65533 x x x x 50 x
# 0x45 	 rs1_val=50, rs2_val=50, sub x1, x2, x1 	 x1 : 50,reg_file=65533 12 x x x 65533 x x 65533 65533 x x x x 50 x
# 0x46 	 rs1_val=50, rs2_val=50, sub x1, x2, x1 	 x1 : 50,reg_file=65533 12 x x x 65533 x x 65533 65533 x x x x 50 x
# 0x47 	 rs1_val=50, rs2_val=50, sub x1, x2, x1 	 x1 : 50,reg_file=65533 12 x x x 65533 x x 65533 65533 x x x x 50 x
# 0x48 	 li x12, 34 	 x12 : 1,reg_file=65533 12 x 1 x 65533 x x 65533 65533 x x x x 50 x
# 0x49 	 li x12, 34 	 x12 : 1,reg_file=65533 12 x 1 x 65533 x x 65533 65533 x x x x 50 x
# 0x4a 	 li x12, 34 	 x12 : 1,reg_file=65533 12 x 1 x 65533 x x 65533 65533 x x x x 50 x
# 0x4b 	 li x12, 34 	 x12 : 1,reg_file=65533 12 x 1 x 65533 x x 65533 65533 x x x x 50 x
# 0x4c 	 li x12, 34 	 x12 : 1,reg_file=65533 12 x 1 x 65533 x x 65533 65533 x x x x 50 x
# 0x4d 	 li x12, 34 	 x12 : 1,reg_file=65533 12 x 1 x 65533 x x 65533 65533 x x x x 50 x
# 0x4e 	 li x12, 34 	 x12 : 1,reg_file=65533 12 x 1 x 65533 x x 65533 65533 x x x x 50 x
# 0x4f 	 li x12, 34 	 x12 : 1,reg_file=65533 12 x 1 x 65533 x x 65533 65533 x x x x 50 x
# 0x50 	 rs1_val=27, rs2_val=48, xor x7, x12, x8 	 x7 : 720, reg_file=65533 12 x 1 x 65533 x x 720 65533 x x x x 50 x
# 0x51 	 rs1_val=27, rs2_val=48, xor x7, x12, x8 	 x7 : 720, reg_file=65533 12 x 1 x 65533 x x 720 65533 x x x x 50 x
# 0x52 	 rs1_val=27, rs2_val=48, xor x7, x12, x8 	 x7 : 720, reg_file=65533 12 x 1 x 65533 x x 720 65533 x x x x 50 x
# 0x53 	 rs1_val=27, rs2_val=48, xor x7, x12, x8 	 x7 : 720, reg_file=65533 12 x 1 x 65533 x x 720 65533 x x x x 50 x
# 0x54 	 rs1_val=27, rs2_val=48, xor x7, x12, x8 	 x7 : 720, reg_file=65533 12 x 1 x 65533 x x 720 65533 x x x x 50 x
# 0x55 	 rs1_val=27, rs2_val=48, xor x7, x12, x8 	 x7 : 720, reg_file=65533 12 x 1 x 65533 x x 720 65533 x x x x 50 x
# 0x56 	 rs1_val=27, rs2_val=48, xor x7, x12, x8 	 x7 : 720, reg_file=65533 12 x 1 x 65533 x x 720 65533 x x x x 50 x
# 0x57 	 rs1_val=27, rs2_val=48, xor x7, x12, x8 	 x7 : 720, reg_file=65533 12 x 1 x 65533 x x 720 65533 x x x x 50 x
# 0x58 	 ******exception case, multiplication results exceed data length ******* rs1_val=37, rs2_val=21, mul x1, x9, x1 	 x1 : 720,reg_file=65533 12 x 1 x 65533 x x 720 65533 x x x x 720 x
# 0x59 	 ******exception case, multiplication results exceed data length ******* rs1_val=37, rs2_val=21, mul x1, x9, x1 	 x1 : 720,reg_file=65533 12 x 1 x 65533 x x 720 65533 x x x x 720 x
# 0x5a 	 ******exception case, multiplication results exceed data length ******* rs1_val=37, rs2_val=21, mul x1, x9, x1 	 x1 : 720,reg_file=65533 12 x 1 x 65533 x x 720 65533 x x x x 720 x
# 0x5b 	 ******exception case, multiplication results exceed data length ******* rs1_val=37, rs2_val=21, mul x1, x9, x1 	 x1 : 720,reg_file=65533 12 x 1 x 65533 x x 720 65533 x x x x 720 x
# 0x5c 	 ******exception case, multiplication results exceed data length ******* rs1_val=37, rs2_val=21, mul x1, x9, x1 	 x1 : 720,reg_file=65533 12 x 1 x 65533 x x 720 65533 x x x x 720 x
# 0x5d 	 ******exception case, multiplication results exceed data length ******* rs1_val=37, rs2_val=21, mul x1, x9, x1 	 x1 : 720,reg_file=65533 12 x 1 x 65533 x x 720 65533 x x x x 720 x
# 0x5e 	 ******exception case, multiplication results exceed data length ******* rs1_val=37, rs2_val=21, mul x1, x9, x1 	 x1 : 720,reg_file=65533 12 x 1 x 65533 x x 720 65533 x x x x 720 x
# 0x5f 	 ******exception case, multiplication results exceed data length ******* rs1_val=37, rs2_val=21, mul x1, x9, x1 	 x1 : 720,reg_file=65533 12 x 1 x 65533 x x 720 65533 x x x x 720 x
# 0x60 	 ******exception case, multiplication results exceed data length ******* rs1_val=23, rs2_val=37, mul x15, x15, x9 	 x15 : 720,reg_file=720 12 x 1 x 65533 x x 720 65533 x x x x 720 x
# 0x61 	 ******exception case, multiplication results exceed data length ******* rs1_val=23, rs2_val=37, mul x15, x15, x9 	 x15 : 720,reg_file=720 12 x 1 x 65533 x x 720 65533 x x x x 720 x
# 0x62 	 ******exception case, multiplication results exceed data length ******* rs1_val=23, rs2_val=37, mul x15, x15, x9 	 x15 : 720,reg_file=720 12 x 1 x 65533 x x 720 65533 x x x x 720 x
# 0x63 	 ******exception case, multiplication results exceed data length ******* rs1_val=23, rs2_val=37, mul x15, x15, x9 	 x15 : 720,reg_file=720 12 x 1 x 65533 x x 720 65533 x x x x 720 x
# 0x64 	 ******exception case, multiplication results exceed data length ******* rs1_val=23, rs2_val=37, mul x15, x15, x9 	 x15 : 720,reg_file=720 12 x 1 x 65533 x x 720 65533 x x x x 720 x
# 0x65 	 ******exception case, multiplication results exceed data length ******* rs1_val=23, rs2_val=37, mul x15, x15, x9 	 x15 : 720,reg_file=720 12 x 1 x 65533 x x 720 65533 x x x x 720 x
# 0x66 	 ******exception case, multiplication results exceed data length ******* rs1_val=23, rs2_val=37, mul x15, x15, x9 	 x15 : 720,reg_file=720 12 x 1 x 65533 x x 720 65533 x x x x 720 x
# 0x67 	 ******exception case, multiplication results exceed data length ******* rs1_val=23, rs2_val=37, mul x15, x15, x9 	 x15 : 720,reg_file=720 12 x 1 x 65533 x x 720 65533 x x x x 720 x
# 0x68 	 ******exception case, multiplication results exceed data length ******* rs1_val=20, rs2_val=50, mul x2, x13, x3 	 x2 : 38,reg_file=720 12 x 1 x 65533 x x 720 65533 x x x 38 720 x
# 0x69 	 ******exception case, multiplication results exceed data length ******* rs1_val=20, rs2_val=50, mul x2, x13, x3 	 x2 : 38,reg_file=720 12 x 1 x 65533 x x 720 65533 x x x 38 720 x
# 0x6a 	 ******exception case, multiplication results exceed data length ******* rs1_val=20, rs2_val=50, mul x2, x13, x3 	 x2 : 38,reg_file=720 12 x 1 x 65533 x x 720 65533 x x x 38 720 x
# 0x6b 	 ******exception case, multiplication results exceed data length ******* rs1_val=20, rs2_val=50, mul x2, x13, x3 	 x2 : 38,reg_file=720 12 x 1 x 65533 x x 720 65533 x x x 38 720 x
# 0x6c 	 ******exception case, multiplication results exceed data length ******* rs1_val=20, rs2_val=50, mul x2, x13, x3 	 x2 : 38,reg_file=720 12 x 1 x 65533 x x 720 65533 x x x 38 720 x
# 0x6d 	 ******exception case, multiplication results exceed data length ******* rs1_val=20, rs2_val=50, mul x2, x13, x3 	 x2 : 38,reg_file=720 12 x 1 x 65533 x x 720 65533 x x x 38 720 x
# 0x6e 	 ******exception case, multiplication results exceed data length ******* rs1_val=20, rs2_val=50, mul x2, x13, x3 	 x2 : 38,reg_file=720 12 x 1 x 65533 x x 720 65533 x x x 38 720 x
# 0x6f 	 ******exception case, multiplication results exceed data length ******* rs1_val=20, rs2_val=50, mul x2, x13, x3 	 x2 : 38,reg_file=720 12 x 1 x 65533 x x 720 65533 x x x 38 720 x
# *0x70 	 *****exception case, addition result exceed data length ******* rs1_val=39, rs2_val=29, add x6, x15, x5 	 x6 : 38,reg_file=720 12 x 1 x 65533 x x 720 38 x x x 38 720 x
# *0x71 	 *****exception case, addition result exceed data length ******* rs1_val=39, rs2_val=29, add x6, x15, x5 	 x6 : 38,reg_file=720 12 x 1 x 65533 x x 720 38 x x x 38 720 x
# *0x72 	 *****exception case, addition result exceed data length ******* rs1_val=39, rs2_val=29, add x6, x15, x5 	 x6 : 38,reg_file=720 12 x 1 x 65533 x x 720 38 x x x 38 720 x
# *0x73 	 *****exception case, addition result exceed data length ******* rs1_val=39, rs2_val=29, add x6, x15, x5 	 x6 : 38,reg_file=720 12 x 1 x 65533 x x 720 38 x x x 38 720 x
# *0x74 	 *****exception case, addition result exceed data length ******* rs1_val=39, rs2_val=29, add x6, x15, x5 	 x6 : 38,reg_file=720 12 x 1 x 65533 x x 720 38 x x x 38 720 x
# *0x75 	 *****exception case, addition result exceed data length ******* rs1_val=39, rs2_val=29, add x6, x15, x5 	 x6 : 38,reg_file=720 12 x 1 x 65533 x x 720 38 x x x 38 720 x
# *0x76 	 *****exception case, addition result exceed data length ******* rs1_val=39, rs2_val=29, add x6, x15, x5 	 x6 : 38,reg_file=720 12 x 1 x 65533 x x 720 38 x x x 38 720 x
# *0x77 	 *****exception case, addition result exceed data length ******* rs1_val=39, rs2_val=29, add x6, x15, x5 	 x6 : 38,reg_file=720 12 x 1 x 65533 x x 720 38 x x x 38 720 x
# *0x78 	 *****exception case, addition result exceed data length ******* rs1_val=23, rs2_val=31, add x3, x5, x11 	 x3 : 31,reg_file=720 12 x 1 x 65533 x x 720 38 x x 31 38 720 x
# *0x79 	 *****exception case, addition result exceed data length ******* rs1_val=23, rs2_val=31, add x3, x5, x11 	 x3 : 31,reg_file=720 12 x 1 x 65533 x x 720 38 x x 31 38 720 x
# *0x7a 	 *****exception case, addition result exceed data length ******* rs1_val=23, rs2_val=31, add x3, x5, x11 	 x3 : 31,reg_file=720 12 x 1 x 65533 x x 720 38 x x 31 38 720 x
# *0x7b 	 *****exception case, addition result exceed data length ******* rs1_val=23, rs2_val=31, add x3, x5, x11 	 x3 : 31,reg_file=720 12 x 1 x 65533 x x 720 38 x x 31 38 720 x
# *0x7c 	 *****exception case, addition result exceed data length ******* rs1_val=23, rs2_val=31, add x3, x5, x11 	 x3 : 31,reg_file=720 12 x 1 x 65533 x x 720 38 x x 31 38 720 x
# *0x7d 	 *****exception case, addition result exceed data length ******* rs1_val=23, rs2_val=31, add x3, x5, x11 	 x3 : 31,reg_file=720 12 x 1 x 65533 x x 720 38 x x 31 38 720 x
# *0x7e 	 *****exception case, addition result exceed data length ******* rs1_val=23, rs2_val=31, add x3, x5, x11 	 x3 : 31,reg_file=720 12 x 1 x 65533 x x 720 38 x x 31 38 720 x
# *0x7f 	 *****exception case, addition result exceed data length ******* rs1_val=23, rs2_val=31, add x3, x5, x11 	 x3 : 31,reg_file=720 12 x 1 x 65533 x x 720 38 x x 31 38 720 x
# 0x80 	 rs1_val=49, rs2_val=30, or x15, x1, x0 	 x15 : 31, reg_file=31 12 x 1 x 65533 x x 720 38 x x 31 38 720 x
# 0x81 	 rs1_val=49, rs2_val=30, or x15, x1, x0 	 x15 : 31, reg_file=31 12 x 1 x 65533 x x 720 38 x x 31 38 720 x
# 0x82 	 rs1_val=49, rs2_val=30, or x15, x1, x0 	 x15 : 31, reg_file=31 12 x 1 x 65533 x x 720 38 x x 31 38 720 x
# 0x83 	 rs1_val=49, rs2_val=30, or x15, x1, x0 	 x15 : 31, reg_file=31 12 x 1 x 65533 x x 720 38 x x 31 38 720 x
# 0x84 	 rs1_val=49, rs2_val=30, or x15, x1, x0 	 x15 : 31, reg_file=31 12 x 1 x 65533 x x 720 38 x x 31 38 720 x
# 0x85 	 rs1_val=49, rs2_val=30, or x15, x1, x0 	 x15 : 31, reg_file=31 12 x 1 x 65533 x x 720 38 x x 31 38 720 x
# 0x86 	 rs1_val=49, rs2_val=30, or x15, x1, x0 	 x15 : 31, reg_file=31 12 x 1 x 65533 x x 720 38 x x 31 38 720 x
# 0x87 	 rs1_val=49, rs2_val=30, or x15, x1, x0 	 x15 : 31, reg_file=31 12 x 1 x 65533 x x 720 38 x x 31 38 720 x
# 0x88 	 rs1_val=43, rs2_val=42, or x0, x13, x5 	 x0 : 31, reg_file=31 12 x 1 x 65533 x x 720 38 x x 31 38 720 31
# 0x89 	 rs1_val=43, rs2_val=42, or x0, x13, x5 	 x0 : 31, reg_file=31 12 x 1 x 65533 x x 720 38 x x 31 38 720 31
# 0x8a 	 rs1_val=43, rs2_val=42, or x0, x13, x5 	 x0 : 31, reg_file=31 12 x 1 x 65533 x x 720 38 x x 31 38 720 31
# 0x8b 	 rs1_val=43, rs2_val=42, or x0, x13, x5 	 x0 : 31, reg_file=31 12 x 1 x 65533 x x 720 38 x x 31 38 720 31
# 0x8c 	 rs1_val=43, rs2_val=42, or x0, x13, x5 	 x0 : 31, reg_file=31 12 x 1 x 65533 x x 720 38 x x 31 38 720 31
# 0x8d 	 rs1_val=43, rs2_val=42, or x0, x13, x5 	 x0 : 31, reg_file=31 12 x 1 x 65533 x x 720 38 x x 31 38 720 31
# 0x8e 	 rs1_val=43, rs2_val=42, or x0, x13, x5 	 x0 : 31, reg_file=31 12 x 1 x 65533 x x 720 38 x x 31 38 720 31
# 0x8f 	 rs1_val=43, rs2_val=42, or x0, x13, x5 	 x0 : 31, reg_file=31 12 x 1 x 65533 x x 720 38 x x 31 38 720 31
# 0x90 	 rs1_val=20, rs2_val=45, or x9, x13, x3 	 x9 : 612, reg_file=31 12 x 1 x 65533 612 x 720 38 x x 31 38 720 31
# 0x91 	 rs1_val=20, rs2_val=45, or x9, x13, x3 	 x9 : 612, reg_file=31 12 x 1 x 65533 612 x 720 38 x x 31 38 720 31
# 0x92 	 rs1_val=20, rs2_val=45, or x9, x13, x3 	 x9 : 612, reg_file=31 12 x 1 x 65533 612 x 720 38 x x 31 38 720 31
# 0x93 	 rs1_val=20, rs2_val=45, or x9, x13, x3 	 x9 : 612, reg_file=31 12 x 1 x 65533 612 x 720 38 x x 31 38 720 31
# 0x94 	 rs1_val=20, rs2_val=45, or x9, x13, x3 	 x9 : 612, reg_file=31 12 x 1 x 65533 612 x 720 38 x x 31 38 720 31
# 0x95 	 rs1_val=20, rs2_val=45, or x9, x13, x3 	 x9 : 612, reg_file=31 12 x 1 x 65533 612 x 720 38 x x 31 38 720 31
# 0x96 	 rs1_val=20, rs2_val=45, or x9, x13, x3 	 x9 : 612, reg_file=31 12 x 1 x 65533 612 x 720 38 x x 31 38 720 31
# 0x97 	 rs1_val=20, rs2_val=45, or x9, x13, x3 	 x9 : 612, reg_file=31 12 x 1 x 65533 612 x 720 38 x x 31 38 720 31
# 0x98 	 ******exception case, multiplication results exceed data length ******* rs1_val=37, rs2_val=50, mul x4, x14, x7 	 x4 : 65523,reg_file=31 12 x 1 x 65533 612 x 720 38 x 65523 31 38 720 31
# 0x99 	 ******exception case, multiplication results exceed data length ******* rs1_val=37, rs2_val=50, mul x4, x14, x7 	 x4 : 65523,reg_file=31 12 x 1 x 65533 612 x 720 38 x 65523 31 38 720 31
# 0x9a 	 ******exception case, multiplication results exceed data length ******* rs1_val=37, rs2_val=50, mul x4, x14, x7 	 x4 : 65523,reg_file=31 12 x 1 x 65533 612 x 720 38 x 65523 31 38 720 31
# 0x9b 	 ******exception case, multiplication results exceed data length ******* rs1_val=37, rs2_val=50, mul x4, x14, x7 	 x4 : 65523,reg_file=31 12 x 1 x 65533 612 x 720 38 x 65523 31 38 720 31
# 0x9c 	 ******exception case, multiplication results exceed data length ******* rs1_val=37, rs2_val=50, mul x4, x14, x7 	 x4 : 65523,reg_file=31 12 x 1 x 65533 612 x 720 38 x 65523 31 38 720 31
# 0x9d 	 ******exception case, multiplication results exceed data length ******* rs1_val=37, rs2_val=50, mul x4, x14, x7 	 x4 : 65523,reg_file=31 12 x 1 x 65533 612 x 720 38 x 65523 31 38 720 31
# 0x9e 	 ******exception case, multiplication results exceed data length ******* rs1_val=37, rs2_val=50, mul x4, x14, x7 	 x4 : 65523,reg_file=31 12 x 1 x 65533 612 x 720 38 x 65523 31 38 720 31
# 0x9f 	 ******exception case, multiplication results exceed data length ******* rs1_val=37, rs2_val=50, mul x4, x14, x7 	 x4 : 65523,reg_file=31 12 x 1 x 65533 612 x 720 38 x 65523 31 38 720 31
# 0xa0 	 rs1_val=45, rs2_val=39, sub x14, x3, x2 	 x14 : 65523,reg_file=31 65523 x 1 x 65533 612 x 720 38 x 65523 31 38 720 31
# 0xa1 	 rs1_val=45, rs2_val=39, sub x14, x3, x2 	 x14 : 65523,reg_file=31 65523 x 1 x 65533 612 x 720 38 x 65523 31 38 720 31
# 0xa2 	 rs1_val=45, rs2_val=39, sub x14, x3, x2 	 x14 : 65523,reg_file=31 65523 x 1 x 65533 612 x 720 38 x 65523 31 38 720 31
# 0xa3 	 rs1_val=45, rs2_val=39, sub x14, x3, x2 	 x14 : 65523,reg_file=31 65523 x 1 x 65533 612 x 720 38 x 65523 31 38 720 31
# 0xa4 	 rs1_val=45, rs2_val=39, sub x14, x3, x2 	 x14 : 65523,reg_file=31 65523 x 1 x 65533 612 x 720 38 x 65523 31 38 720 31
# 0xa5 	 rs1_val=45, rs2_val=39, sub x14, x3, x2 	 x14 : 65523,reg_file=31 65523 x 1 x 65533 612 x 720 38 x 65523 31 38 720 31
# 0xa6 	 rs1_val=45, rs2_val=39, sub x14, x3, x2 	 x14 : 65523,reg_file=31 65523 x 1 x 65533 612 x 720 38 x 65523 31 38 720 31
# 0xa7 	 rs1_val=45, rs2_val=39, sub x14, x3, x2 	 x14 : 65523,reg_file=31 65523 x 1 x 65533 612 x 720 38 x 65523 31 38 720 31
# 0xa8 	 rs1_val=28, rs2_val=49, sub x10, x7, x13 	 x10 : 45,reg_file=31 65523 x 1 x 45 612 x 720 38 x 65523 31 38 720 31
# 0xa9 	 rs1_val=28, rs2_val=49, sub x10, x7, x13 	 x10 : 45,reg_file=31 65523 x 1 x 45 612 x 720 38 x 65523 31 38 720 31
# 0xaa 	 rs1_val=28, rs2_val=49, sub x10, x7, x13 	 x10 : 45,reg_file=31 65523 x 1 x 45 612 x 720 38 x 65523 31 38 720 31
